Applied diagnostic classification modeling
…
Point 4

Point 5

Point 6

Code

library(measr)
library(dcmstan)

create_profiles(5)

#> # A tibble: 32 × 5
#>     att1  att2  att3  att4  att5
#>    <int> <int> <int> <int> <int>
#>  1     0     0     0     0     0
#>  2     1     0     0     0     0
#>  3     0     1     0     0     0
#>  4     0     0     1     0     0
#>  5     0     0     0     1     0
#>  6     0     0     0     0     1
#>  7     1     1     0     0     0
#>  8     1     0     1     0     0
#>  9     1     0     0     1     0
#> 10     1     0     0     0     1
#> # ℹ 22 more rows
…
1

Take starwars, and then,

2

add new columns for the BMI and age in “Return of the Jedi”

Output highlighting

#> # A tibble: 87 × 16
#>    name     height  mass hair_color skin_color eye_color birth_year sex   gender
#>    <chr>     <int> <dbl> <chr>      <chr>      <chr>          <dbl> <chr> <chr> 
#>  1 Luke Sk…    172    77 blond      fair       blue            19   male  mascu…
#>  2 C-3PO       167    75 <NA>       gold       yellow         112   none  mascu…
#>  3 R2-D2        96    32 <NA>       white, bl… red             33   none  mascu…
#>  4 Darth V…    202   136 none       white      yellow          41.9 male  mascu…
#>  5 Leia Or…    150    49 brown      light      brown           19   fema… femin…
#>  6 Owen La…    178   120 brown, gr… light      blue            52   male  mascu…
#>  7 Beru Wh…    165    75 brown      light      blue            47   fema… femin…
#>  8 R5-D4        97    32 <NA>       white, red red             NA   none  mascu…
#>  9 Biggs D…    183    84 black      light      brown           24   male  mascu…
#> 10 Obi-Wan…    182    77 auburn, w… fair       blue-gray       57   male  mascu…
#> # ℹ 77 more rows
#> # ℹ 7 more variables: homeworld <chr>, species <chr>, films <list>,
#> #   vehicles <list>, starships <list>, bmi <dbl>, age_new_hope <dbl>
…
